Iconicity Ratings Mega - Quality checks and exclusions
…
Massive standard deviation.

Range:

range(df$rt)

## [1]        6 22909483

Thats crazy high. That maximum number is more than 6 hours. Also that minimum number (6ms) is too low for sure. Nobody can process a word and click that quickly.

Quickly check those responses that are below 100 or below 500:

filter(df, rt < 100) %>% count(subj_code, sort = TRUE)

## # A tibble: 22 x 2
##    subj_code     n
##    <chr>     <int>
##  1 548          34
##  2 771          29
##  3 534          13
##  4 271          11
##  5 270           5
##  6 434           5
##  7 282           3
##  8 323           2
##  9 117           1
## 10 122           1
## #  with 12 more rows

filter(df, rt < 500) %>% count(subj_code, sort = TRUE)

## # A tibble: 227 x 2
##    subj_code     n
##    <chr>     <int>
##  1 600         114
##  2 548         113
##  3 282         108
##  4 771          89
##  5 509          83
##  6 323          82
##  7 271          69
##  8 721          68
##  9 122          66
## 10 434          65
## #  with 217 more rows
…
filter(df, rt < 500) %>% nrow() / nrow(df) # proportion

## [1] 0.02104974

Even 500ms is less than 2.4% of the data. I think this is worth excluding:

# Exclusion 2... based on rt < 500ms

df <- filter(df, rt > 500)

Now lets look at the upper range. How many really high values are there? Lets look at larger than 10s.

filter(df, rt > 10000)

## # A tibble: 3,802 x 8
##    row_id subj_code batch_num   bin trial_number word           key     rt
##     <int> <chr>         <int> <int>        <dbl> <chr>        <dbl>  <dbl>
##  1     99 2                 1    55            1 bravery          5  11644
##  2    117 2                 1    55           19 disquieting      4  97165
##  3    122 2                 1    55           24 frantic          3  13968
##  4    149 2                 2    54            1 magazine         3  56250
##  5    150 2                 2    54            2 infrequent       3  48746
##  6    389 5                 1   301            1 deaf             3  10535
##  7    483 6                 1   276            1 banjo            3  16047
##  8    484 6                 1   276            2 disagreeable     2  16523
##  9    486 6                 1   276            4 darken           2 122081
## 10    488 6                 1   276            6 plier            2  44424
## #  with 3,792 more rows
…
First, well get a count of N per subject:

N_sub <- df %>% count(subj_code) %>% 
  rename(total = n)

Then the count of subject/key combinations:

N_resp <- df %>% count(subj_code, key, sort = TRUE)

# Check:

N_resp

## # A tibble: 6,769 x 3
##    subj_code   key     n
##    <chr>     <dbl> <int>
##  1 431           7   137
##  2 629           1   134
##  3 370           7   129
##  4 625           1   126
##  5 643           1   124
##  6 665           1   123
##  7 910           1   123
##  8 699           7   122
##  9 326           1   117
## 10 500           1   116
## #  with 6,759 more rows
…
## # A tibble: 1 x 2
##     r_M  r_SD
##   <dbl> <dbl>
## 1 0.474 0.170

Sort this in ascending order:

ppt_corrs <- arrange(ppt_corrs, r)

# Show:

ppt_corrs

## # A tibble: 919 x 2
##    subj_code        r
##    <chr>        <dbl>
##  1 214       -0.138  
##  2 410       -0.121  
##  3 110       -0.0873 
##  4 5         -0.0551 
##  5 212       -0.0496 
##  6 11        -0.0166 
##  7 868       -0.0105 
##  8 411       -0.00278
##  9 48         0.00230
## 10 770        0.00950
## #  with 909 more rows
…
icon %>% summarize(n = mean(n_ratings),
                   min = min(n_ratings),
                   max = max(n_ratings))

## # A tibble: 1 x 3
##       n   min   max
##   <dbl> <dbl> <dbl>
## 1  7.42     3    12

Whats with those low ones? They were all known, but why do we have so few data points for these?

arrange(icon, n_ratings)

## # A tibble: 14,649 x 6
##    word     n_ratings     n prop_known rating rating_sd
##    <chr>        <dbl> <int>      <dbl>  <dbl>     <dbl>
##  1 omit             3     3        1     3        1    
##  2 pendulum         3     3        1     4.67     0.577
##  3 whatever         3     3        1     5        2    
##  4 ad               4     4        1     3.75     3.20 
##  5 alpha            4     4        1     4.5      2.65 
##  6 ambient          4     5        0.8   4.5      0.577
##  7 avid             4     5        0.8   3        2.83 
##  8 ballet           4     4        1     3.75     0.957
##  9 belay            4     5        0.8   3.25     2.06 
## 10 bespoken         4     5        0.8   3.25     2.06 
## #  with 14,639 more rows
…
