Iconicity ratings - substantive analysis
…
## [1] 0.3407975

Check against old ratings from Dingemanse & Thompson (2020) file - careful, this is a subset:

with(icon, cor(rating, ico, use = 'complete.obs'))

## [1] 0.5796991

Check the distribution for reporting

For reporting, 10 most iconic words:

arrange(icon, desc(rating))

## # A tibble: 14,649 x 58
##    word  n_ratings     n prop_known rating rating_sd   SER   AOA  Freq    CD
##    <chr>     <dbl> <dbl>      <dbl>  <dbl>     <dbl> <dbl> <dbl> <dbl> <dbl>
##  1 choo~         6     6          1   7        0     NA    NA        0     0
##  2 oomph         6     6          1   7        0     NA     9.33    33    22
##  3 quack         7     7          1   7        0      4.6   5.25   236    86
##  4 swoo~         5     5          1   7        0     NA     7.17    12    11
##  5 wigg~         7     7          1   7        0      3.5   3.95   152   105
##  6 clunk         8     8          1   6.88     0.354 NA     8.22    32    26
##  7 sque~         8     8          1   6.88     0.354  4.09  5.84   121    62
##  8 puffy         7     7          1   6.86     0.378 NA     7.42    86    65
##  9 shh           7     7          1   6.86     0.378 NA    NA     2810  1245
## 10 vroom         7     7          1   6.86     0.378 NA    NA       42    19
## # ... with 14,639 more rows, and 48 more variables: POS <chr>, humor <dbl>,
## #   Aud <dbl>, Gus <dbl>, Hap <dbl>, Int <dbl>, Olf <dbl>, Vis <dbl>,
## #   Mod <chr>, Max_perceptual <dbl>, logletterfreq <dbl>, ico <dbl>,
## #   ico_imputed <dbl>, ico_imputed_monomorph <dbl>, wisc_sound <dbl>,
## #   wisc_color <dbl>, wisc_motion <dbl>, amsel_smell <dbl>, amsel_color <dbl>,
## #   amsel_taste <dbl>, amsel_sound <dbl>, amsel_motion <dbl>, NMorph <dbl>,
## #   LogMorph <dbl>, LogFreq <dbl>, LogCD <dbl>, SER_z <dbl>, AOA_z <dbl>,
## #   LogFreq_z <dbl>, LogCD_z <dbl>, humor_z <dbl>, logletter_z <dbl>,
## #   lognmorph_z <dbl>, amsel_color_z <dbl>, amsel_smell_z <dbl>,
## #   amsel_taste_z <dbl>, amsel_sound_z <dbl>, amsel_motion_z <dbl>,
## #   wisc_sound_z <dbl>, wisc_color_z <dbl>, wisc_motion_z <dbl>, Aud_z <dbl>,
## #   Gus_z <dbl>, Hap_z <dbl>, Int_z <dbl>, Olf_z <dbl>, Vis_z <dbl>,
## #   POS_simple <chr>

And 10 least iconic words:

arrange(icon, rating)

## # A tibble: 14,649 x 58
##    word  n_ratings     n prop_known rating rating_sd   SER   AOA   Freq    CD
##    <chr>     <dbl> <dbl>      <dbl>  <dbl>     <dbl> <dbl> <dbl>  <dbl> <dbl>
##  1 drake         4     5      0.8     1        0      1.2  12.1     304    72
##  2 were          5     5      1       1        0      1.45 NA     84804  8237
##  3 suff~         8     8      1       1.12     0.354  1.8  12.3      84    80
##  4 balc~         6     6      1       1.17     0.408 NA     8.1     373   267
##  5 dein~         6     6      1       1.17     0.408 NA    NA         0     0
##  6 disc~         6     7      0.857   1.17     0.408 NA    13.6       2     2
##  7 unco~         6     7      0.857   1.17     0.408 NA    13.2       2     2
##  8 aton~         5     6      0.833   1.2      0.447 NA    11.8      18    17
##  9 arti~         7     7      1       1.29     0.756 NA     8.61    998   553
## 10 if            7     7      1       1.29     0.488  1.09  5.36 180610  8340
## # ... with 14,639 more rows, and 48 more variables: POS <chr>, humor <dbl>,
## #   Aud <dbl>, Gus <dbl>, Hap <dbl>, Int <dbl>, Olf <dbl>, Vis <dbl>,
## #   Mod <chr>, Max_perceptual <dbl>, logletterfreq <dbl>, ico <dbl>,
## #   ico_imputed <dbl>, ico_imputed_monomorph <dbl>, wisc_sound <dbl>,
## #   wisc_color <dbl>, wisc_motion <dbl>, amsel_smell <dbl>, amsel_color <dbl>,
## #   amsel_taste <dbl>, amsel_sound <dbl>, amsel_motion <dbl>, NMorph <dbl>,
## #   LogMorph <dbl>, LogFreq <dbl>, LogCD <dbl>, SER_z <dbl>, AOA_z <dbl>,
## #   LogFreq_z <dbl>, LogCD_z <dbl>, humor_z <dbl>, logletter_z <dbl>,
## #   lognmorph_z <dbl>, amsel_color_z <dbl>, amsel_smell_z <dbl>,
…
## `summarise()` ungrouping output (override with `.groups` argument)

# Put counts in there:

levin_avg <- left_join(levin_avg, levin_counts)

## Joining, by = "category"

# Show:

levin_avg

## # A tibble: 50 x 4
##    category                                     M    SD     n
##    <chr>                                    <dbl> <dbl> <int>
##  1 verbs of sounds made by animals           5.45 0.934    67
##  2 verbs of body-internal motion             5.42 0.967    15
##  3 verbs of emission                         5.34 0.918   170
##  4 verbs of exerting froce: push/pull verbs  5.04 0.317    10
##  5 verbs of contact: touch verbs             4.97 0.646    13
##  6 verbs of assuming position                4.89 0.990    19
##  7 verbs of contact by impact                4.85 1.04     69
##  8 verbs involving the body                  4.82 0.898   206
##  9 verbs of throwing                         4.76 0.883    30
## 10 verbs of cutting                          4.73 0.955    43
## # ... with 40 more rows

For comparison, the least iconic classes:

arrange(levin_avg, M)

## # A tibble: 50 x 4
##    category                               M    SD     n
##    <chr>                              <dbl> <dbl> <int>
##  1 engender verbs                      3.15 1.06      7
##  2 verbs with predicative complements  3.29 0.772   195
##  3 measure verbs                       3.30 0.865    41
##  4 verbs of concealment                3.35 0.843    11
##  5 judgment verbs                      3.36 0.889    68
##  6 verbs of change of possession       3.46 0.805   156
##  7 learn verbs                         3.47 0.760     7
##  8 verbs of assessment                 3.49 0.806     7
##  9 verbs of coloring                   3.50 0.902    13
## 10 lodge verbs                         3.55 1.17     11
## # ... with 40 more rows
…
